#FIG 3.2  Produced by xfig version 3.2.7b
Landscape
Center
Metric
A4
100.00
Single
-2
1200 2
1 3 0 2 0 3 49 -1 20 0.000 1 0.0000 7875 2520 101 101 7875 2520 7976 2520
2 3 0 4 0 27 50 -1 20 0.000 1 0 -1 0 0 7
	 7065 2700 7065 3600 7875 4005 8685 3600 8685 2700 7875 2250
	 7065 2700
2 3 0 2 0 3 50 -1 20 0.000 1 0 -1 0 0 4
	 7650 3690 7875 3870 8100 3690 7650 3690
4 1 0 48 -1 14 14 0.0000 4 165 1650 7875 3555 de ad be ef\001
4 1 0 48 -1 14 14 0.0000 4 165 1650 7875 3330 6f 72 6c 64\001
4 1 0 48 -1 14 14 0.0000 4 165 1650 7875 3105 6f 2c 20 77\001
4 1 0 48 -1 14 14 0.0000 4 165 1650 7875 2880 48 65 6c 6c\001
